<svg width="19" height="19" viewBox="0 0 19 19" fill="none" xmlns="http://www.w3.org/2000/svg">
<path d="M11.2219 1.55312C11.2468 1.45779 11.2905 1.36838 11.3505 1.29016C11.4104 1.21193 11.4854 1.14645 11.5709 1.09756C11.6565 1.04866 11.751 1.01734 11.8488 1.00542C11.9466 0.993493 12.0458 1.00121 12.1406 1.02812C13.5387 1.4031 14.8136 2.13933 15.8371 3.16288C16.8607 4.18643 17.5969 5.46127 17.9719 6.85937C17.9988 6.95418 18.0065 7.0534 17.9946 7.15122C17.9827 7.24905 17.9513 7.34351 17.9024 7.42907C17.8535 7.51464 17.7881 7.58958 17.7098 7.64952C17.6316 7.70946 17.5422 7.75318 17.4469 7.77812C17.3829 7.79666 17.3166 7.80612 17.25 7.80625C17.0845 7.8053 16.9239 7.74961 16.7933 7.64786C16.6627 7.54612 16.5695 7.40403 16.5281 7.24375C16.2162 6.10214 15.6121 5.06158 14.7752 4.22476C13.9384 3.38793 12.8979 2.78377 11.7562 2.47187C11.6601 2.44796 11.5697 2.40498 11.4904 2.34548C11.4111 2.28598 11.3446 2.21118 11.2948 2.12551C11.2449 2.03983 11.2128 1.94503 11.2003 1.84671C11.1878 1.74839 11.1951 1.64856 11.2219 1.55312ZM10.9781 5.36875C11.6127 5.54246 12.1911 5.87847 12.6563 6.34369C13.1215 6.80891 13.4575 7.3873 13.6312 8.02187C13.6712 8.18295 13.764 8.32596 13.8949 8.42796C14.0258 8.52996 14.1872 8.58504 14.3531 8.58437C14.4167 8.585 14.48 8.5755 14.5406 8.55625C14.6368 8.53233 14.7272 8.48935 14.8065 8.42985C14.8857 8.37036 14.9523 8.29556 15.0021 8.20988C15.0519 8.12421 15.0841 8.0294 15.0966 7.93108C15.1091 7.83276 15.1018 7.73293 15.075 7.6375C14.8382 6.74642 14.3702 5.93373 13.7182 5.28178C13.0663 4.62983 12.2536 4.16176 11.3625 3.925C11.2647 3.88936 11.1605 3.87448 11.0566 3.88131C10.9527 3.88814 10.8514 3.91652 10.759 3.96466C10.6667 4.0128 10.5854 4.07963 10.5203 4.16091C10.4553 4.24218 10.4078 4.33612 10.381 4.43674C10.3542 4.53736 10.3487 4.64245 10.3647 4.74532C10.3808 4.8482 10.4181 4.94661 10.4743 5.03428C10.5304 5.12195 10.6042 5.19697 10.691 5.25455C10.7777 5.31214 10.8755 5.35103 10.9781 5.36875ZM18.7125 14.4156C18.5467 15.6816 17.9267 16.8443 16.9679 17.6876C16.0092 18.5308 14.7768 18.9972 13.5 19C6.05625 19 0 12.9438 0 5.5C0.00281471 4.22318 0.469194 2.99082 1.31243 2.03205C2.15566 1.07329 3.31837 0.453347 4.58437 0.2875C4.90711 0.251716 5.23284 0.319664 5.51435 0.48149C5.79586 0.643316 6.01851 0.890607 6.15 1.1875L8.03437 5.58437C8.13212 5.8126 8.17131 6.06163 8.14839 6.30884C8.12547 6.55606 8.04116 6.79363 7.90312 7L6.34687 9.38125C7.05158 10.8114 8.21273 11.966 9.64687 12.6625L12 11.0969C12.2061 10.9579 12.4443 10.8738 12.692 10.8525C12.9397 10.8311 13.1888 10.8733 13.4156 10.975L17.8125 12.85C18.1094 12.9815 18.3567 13.2041 18.5185 13.4856C18.6803 13.7672 18.7483 14.0929 18.7125 14.4156ZM17.2219 14.2281L12.825 12.3531L10.4812 13.9187C10.2656 14.0613 10.0168 14.1457 9.75887 14.1638C9.50098 14.1819 9.2428 14.133 9.00937 14.0219C7.26276 13.177 5.84994 11.7708 4.99687 10.0281C4.8844 9.79549 4.83393 9.53774 4.85036 9.27987C4.86678 9.02199 4.94955 8.77273 5.09062 8.55625L6.65625 6.175L4.77187 1.77812C3.86714 1.89443 3.03582 2.33651 2.43356 3.0216C1.8313 3.7067 1.4994 4.58782 1.5 5.5C1.50248 8.68184 2.76756 11.7326 5.01746 13.9825C7.26736 16.2324 10.3182 17.4975 13.5 17.5C14.4122 17.5006 15.2933 17.1687 15.9784 16.5664C16.6635 15.9642 17.1056 15.1329 17.2219 14.2281Z" fill="#6B4EFF"/>
</svg>
