<svg width="18" height="18" viewBox="0 0 18 18" fill="none" xmlns="http://www.w3.org/2000/svg">
<path d="M12 0.75C12 0.551088 12.079 0.360322 12.2197 0.21967C12.3603 0.0790178 12.5511 0 12.75 0H17.25C17.4489 0 17.6397 0.0790178 17.7803 0.21967C17.921 0.360322 18 0.551088 18 0.75V5.25C18 5.44891 17.921 5.63968 17.7803 5.78033C17.6397 5.92098 17.4489 6 17.25 6C17.0511 6 16.8603 5.92098 16.7197 5.78033C16.579 5.63968 16.5 5.44891 16.5 5.25V2.5605L11.781 7.281C11.6395 7.41762 11.4501 7.49321 11.2534 7.49151C11.0568 7.4898 10.8687 7.41092 10.7296 7.27186C10.5906 7.13281 10.5117 6.9447 10.51 6.74805C10.5083 6.5514 10.5839 6.36195 10.7205 6.2205L15.4395 1.5H12.75C12.5511 1.5 12.3603 1.42098 12.2197 1.28033C12.079 1.13968 12 0.948912 12 0.75ZM3.56099 0.18C4.1767 -0.0514833 4.85689 -0.0433622 5.46691 0.202755C6.07692 0.448872 6.5723 0.915046 6.85499 1.509L7.73249 3.351C7.91535 3.73551 7.98535 4.164 7.93437 4.58671C7.88339 5.00942 7.71352 5.40899 7.44449 5.739L6.02699 7.479C6.15633 8.1541 6.39711 8.80296 6.73949 9.399C7.08908 9.98703 7.53359 10.5131 8.05499 10.956L10.314 10.542C10.6803 10.4746 11.0577 10.4992 11.4122 10.6136C11.7666 10.728 12.0872 10.9287 12.345 11.1975L13.5585 12.4635C13.7981 12.7136 13.9858 13.0085 14.1109 13.3315C14.236 13.6544 14.2959 13.9989 14.2873 14.3451C14.2786 14.6913 14.2016 15.0324 14.0605 15.3487C13.9195 15.665 13.7173 15.9502 13.4655 16.188L13.0215 16.608C11.3325 18.2025 8.70149 18.543 6.81899 16.9785C5.40899 15.8055 3.71699 14.1585 2.44199 12.159C1.03199 9.9435 0.371988 7.314 0.0599877 5.334C-0.295512 3.075 1.13999 1.089 3.16649 0.3285L3.56099 0.1785V0.18ZM7.85399 11.7555L7.42049 12.3675L7.41899 12.366L7.41449 12.363L7.39949 12.3525C7.33372 12.3054 7.27016 12.2554 7.20899 12.2025C6.50485 11.6294 5.90765 10.9362 5.44499 10.155C4.95059 9.29659 4.62666 8.35077 4.49099 7.3695L4.48949 7.35V7.3425L5.23349 7.2645L4.48799 7.3395C4.46812 7.14187 4.52746 6.94443 4.65299 6.7905L6.28199 4.7895C6.37147 4.67959 6.42798 4.54659 6.44497 4.40588C6.46196 4.26518 6.43874 4.12255 6.37799 3.9945L5.50049 2.151C5.37943 1.89677 5.16745 1.69718 4.9064 1.59165C4.64534 1.48612 4.35421 1.48232 4.09049 1.581L3.69449 1.731C2.21699 2.286 1.31549 3.66 1.54199 5.097C1.84049 6.9885 2.45699 9.387 3.70799 11.352C4.86749 13.1715 6.43349 14.706 7.77749 15.822C8.98349 16.824 10.761 16.677 11.9925 15.516L12.435 15.096C12.5429 14.9941 12.6296 14.8719 12.6901 14.7364C12.7506 14.6009 12.7836 14.4548 12.7874 14.3064C12.7912 14.1581 12.7655 14.0105 12.712 13.8721C12.6585 13.7336 12.5781 13.6072 12.4755 13.5L11.262 12.234C11.1761 12.1444 11.0694 12.0775 10.9513 12.0392C10.8333 12.001 10.7076 11.9927 10.5855 12.015L7.99049 12.492C7.89188 12.5102 7.79063 12.5084 7.69273 12.4867C7.59482 12.4651 7.50225 12.424 7.42049 12.366L7.85549 11.754L7.85399 11.7555Z" fill="#6B4EFF"/>
</svg>
