<svg width="24" height="24" viewBox="0 0 24 24" fill="none" xmlns="http://www.w3.org/2000/svg">
<path d="M9 21H15M18 9.75V11.25C18 14.55 15.3 17.25 12 17.25C8.7 17.25 6 14.55 6 11.25V9.75M12 17.25V21" stroke="#6B4EFF" stroke-width="1.2" stroke-linecap="round" stroke-linejoin="round"/>
<path d="M12 3C11.6055 2.99801 11.2145 3.07425 10.8496 3.22431C10.4847 3.37437 10.1532 3.59528 9.87423 3.87425C9.59525 4.15322 9.37435 4.48473 9.22429 4.8496C9.07423 5.21448 8.99799 5.60548 8.99998 6V11.2031C8.99998 12.8531 10.3594 14.25 12 14.25C13.6406 14.25 15 12.8906 15 11.2031V6C15 4.3125 13.6875 3 12 3Z" stroke="#6B4EFF" stroke-width="1.2" stroke-linecap="round" stroke-linejoin="round"/>
</svg>
